; Engine configuration file.
; It's best edited using the editor UI and not directly,
; since the parameters that go here are not all obvious.
;
; Format:
;   [section] ; section goes between []
;   param=value ; assign values to parameters

config_version=4

_global_script_classes=[ {
"base": "KinematicBody2D",
"class": "Character",
"language": "GDScript",
"path": "res://Globals/Classes/Characters/Character.gd"
}, {
"base": "Character",
"class": "Dummy",
"language": "GDScript",
"path": "res://Characters/Dummy/Dummy.gd"
}, {
"base": "Node",
"class": "DummyState",
"language": "GDScript",
"path": "res://Globals/Classes/Characters/DummyStateClass.gd"
}, {
"base": "DummyState",
"class": "DummyStateConnector",
"language": "GDScript",
"path": "res://Characters/Dummy/State Machine/DummyState.gd"
}, {
"base": "Node",
"class": "DummyStateMachine",
"language": "GDScript",
"path": "res://Characters/Dummy/StateMachine.gd"
}, {
"base": "EditorProperty",
"class": "EC_CreateCategory",
"language": "GDScript",
"path": "res://addons/export_categories/ec_create_category.gd"
}, {
"base": "Node2D",
"class": "Hitbox",
"language": "GDScript",
"path": "res://Globals/Classes/HitboxClass.gd"
}, {
"base": "PlatCharacter",
"class": "PlatActor",
"language": "GDScript",
"path": "res://Characters/PlatActor.gd"
}, {
"base": "Character",
"class": "PlatCharacter",
"language": "GDScript",
"path": "res://Globals/Classes/Characters/CharacterPlatform.gd"
}, {
"base": "TradState",
"class": "PlayerState",
"language": "GDScript",
"path": "res://Characters/Character0/StateMachine/PlayerState.gd"
}, {
"base": "Button",
"class": "ResolutionButton",
"language": "GDScript",
"path": "res://addons/screenres/plugin_button.gd"
}, {
"base": "Node",
"class": "StateMachine",
"language": "GDScript",
"path": "res://Characters/Character0/StateMachine/StateMachine.gd"
}, {
"base": "Node",
"class": "StateMachineNEW",
"language": "GDScript",
"path": "res://Characters/Character0/NewStateMachine.gd"
}, {
"base": "TradCharacter",
"class": "TestPlayerDISPLAY",
"language": "GDScript",
"path": "res://Characters/Character0/CharacterBase.gd"
}, {
"base": "TradCharacter",
"class": "TradActor",
"language": "GDScript",
"path": "res://Characters/TradActor.gd"
}, {
"base": "Character",
"class": "TradCharacter",
"language": "GDScript",
"path": "res://Globals/Classes/Characters/CharacterTraditional.gd"
}, {
"base": "Node",
"class": "TradState",
"language": "GDScript",
"path": "res://Globals/Classes/Characters/TradStateClass.gd"
}, {
"base": "PlayerState",
"class": "blank",
"language": "GDScript",
"path": "res://Characters/Character0/StateMachine/blank_state_script.gd"
}, {
"base": "Resource",
"class": "cListItem",
"language": "GDScript",
"path": "res://Menus/CharacterMenu/List Items/cListItem.gd"
}, {
"base": "Resource",
"class": "resCharacter",
"language": "GDScript",
"path": "res://User Profile/Character Resources/CharacterResource.gd"
} ]
_global_script_class_icons={
"Character": "",
"Dummy": "",
"DummyState": "",
"DummyStateConnector": "",
"DummyStateMachine": "",
"EC_CreateCategory": "",
"Hitbox": "",
"PlatActor": "",
"PlatCharacter": "res://icon.png",
"PlayerState": "",
"ResolutionButton": "",
"StateMachine": "",
"StateMachineNEW": "",
"TestPlayerDISPLAY": "",
"TradActor": "",
"TradCharacter": "res://icon.png",
"TradState": "",
"blank": "",
"cListItem": "",
"resCharacter": ""
}

[application]

config/name="Build-A-Fighter 0.2"
config/description="The second version of the custom fighting game builder. The other one fucking died."
run/main_scene="res://Menus/Main/Main.tscn"
config/use_custom_user_dir=true
config/icon="res://baf_icon.png"

[autoload]

PlayerInput="*res://Globals/Input/PlayerInput.gd"
InputBuffer="*res://Globals/Input/InputBuffer.gd"
AddNewCharacter="res://User Profile/AddNewCharacter.gd"
AccessProfile="*res://User Profile/AccessProfile.gd"
Game="*res://Globals/GameHandler/Game.gd"
CollisionHandler="*res://Globals/GameHandler/CollisionHandler.gd"
PushbackHandler="*res://Globals/GameHandler/PushbackHandler.gd"

[display]

window/size/width=640.0
window/size/height=360.0
window/size/always_on_top=true
window/size/test_width=1920.0
window/size/test_height=1080.0
window/stretch/mode="viewport"
window/stretch/aspect="keep"

[editor_plugins]

enabled=PoolStringArray( "res://addons/export_categories/plugin.cfg", "res://addons/screenres/plugin.cfg" )

[gui]

common/drop_mouse_on_gui_input_disabled=true

[importer_defaults]

texture={
"compress/bptc_ldr": 0,
"compress/hdr_mode": 0,
"compress/lossy_quality": 0.7,
"compress/mode": 0,
"compress/normal_map": 0,
"detect_3d": false,
"flags/anisotropic": false,
"flags/filter": false,
"flags/mipmaps": false,
"flags/repeat": 0,
"flags/srgb": 2,
"process/HDR_as_SRGB": false,
"process/fix_alpha_border": true,
"process/invert_color": false,
"process/normal_map_invert_y": false,
"process/premult_alpha": false,
"size_limit": 0,
"stream": false,
"svg/scale": 1.0
}

[input]

up={
"deadzone": 0.5,
"events": [ Object(InputEventKey,"resource_local_to_scene":false,"resource_name":"","device":0,"alt":false,"shift":false,"control":false,"meta":false,"command":false,"pressed":false,"scancode":87,"physical_scancode":0,"unicode":0,"echo":false,"script":null)
, Object(InputEventJoypadMotion,"resource_local_to_scene":false,"resource_name":"","device":0,"axis":1,"axis_value":-1.0,"script":null)
 ]
}
down={
"deadzone": 0.5,
"events": [ Object(InputEventKey,"resource_local_to_scene":false,"resource_name":"","device":0,"alt":false,"shift":false,"control":false,"meta":false,"command":false,"pressed":false,"scancode":83,"physical_scancode":0,"unicode":0,"echo":false,"script":null)
, Object(InputEventJoypadMotion,"resource_local_to_scene":false,"resource_name":"","device":0,"axis":1,"axis_value":1.0,"script":null)
 ]
}
left={
"deadzone": 0.5,
"events": [ Object(InputEventKey,"resource_local_to_scene":false,"resource_name":"","device":0,"alt":false,"shift":false,"control":false,"meta":false,"command":false,"pressed":false,"scancode":65,"physical_scancode":0,"unicode":0,"echo":false,"script":null)
, Object(InputEventJoypadMotion,"resource_local_to_scene":false,"resource_name":"","device":0,"axis":0,"axis_value":-1.0,"script":null)
 ]
}
right={
"deadzone": 0.5,
"events": [ Object(InputEventKey,"resource_local_to_scene":false,"resource_name":"","device":0,"alt":false,"shift":false,"control":false,"meta":false,"command":false,"pressed":false,"scancode":68,"physical_scancode":0,"unicode":0,"echo":false,"script":null)
, Object(InputEventJoypadMotion,"resource_local_to_scene":false,"resource_name":"","device":0,"axis":0,"axis_value":1.0,"script":null)
 ]
}
save={
"deadzone": 0.5,
"events": [ Object(InputEventKey,"resource_local_to_scene":false,"resource_name":"","device":0,"alt":false,"shift":false,"control":false,"meta":false,"command":false,"pressed":false,"scancode":16777218,"physical_scancode":0,"unicode":0,"echo":false,"script":null)
 ]
}
print_debug={
"deadzone": 0.5,
"events": [ Object(InputEventKey,"resource_local_to_scene":false,"resource_name":"","device":0,"alt":false,"shift":false,"control":false,"meta":false,"command":false,"pressed":false,"scancode":70,"physical_scancode":0,"unicode":0,"echo":false,"script":null)
 ]
}
light_punch={
"deadzone": 0.5,
"events": [ Object(InputEventKey,"resource_local_to_scene":false,"resource_name":"","device":0,"alt":false,"shift":false,"control":false,"meta":false,"command":false,"pressed":false,"scancode":74,"physical_scancode":0,"unicode":0,"echo":false,"script":null)
, Object(InputEventJoypadButton,"resource_local_to_scene":false,"resource_name":"","device":0,"button_index":2,"pressure":0.0,"pressed":false,"script":null)
 ]
}
medium_punch={
"deadzone": 0.5,
"events": [ Object(InputEventKey,"resource_local_to_scene":false,"resource_name":"","device":0,"alt":false,"shift":false,"control":false,"meta":false,"command":false,"pressed":false,"scancode":75,"physical_scancode":0,"unicode":0,"echo":false,"script":null)
, Object(InputEventJoypadButton,"resource_local_to_scene":false,"resource_name":"","device":0,"button_index":3,"pressure":0.0,"pressed":false,"script":null)
 ]
}
heavy_punch={
"deadzone": 0.5,
"events": [ Object(InputEventKey,"resource_local_to_scene":false,"resource_name":"","device":0,"alt":false,"shift":false,"control":false,"meta":false,"command":false,"pressed":false,"scancode":76,"physical_scancode":0,"unicode":0,"echo":false,"script":null)
, Object(InputEventJoypadButton,"resource_local_to_scene":false,"resource_name":"","device":0,"button_index":5,"pressure":0.0,"pressed":false,"script":null)
 ]
}
light_kick={
"deadzone": 0.5,
"events": [ Object(InputEventKey,"resource_local_to_scene":false,"resource_name":"","device":0,"alt":false,"shift":false,"control":false,"meta":false,"command":false,"pressed":false,"scancode":77,"physical_scancode":0,"unicode":0,"echo":false,"script":null)
 ]
}
medium_kick={
"deadzone": 0.5,
"events": [ Object(InputEventKey,"resource_local_to_scene":false,"resource_name":"","device":0,"alt":false,"shift":false,"control":false,"meta":false,"command":false,"pressed":false,"scancode":44,"physical_scancode":0,"unicode":0,"echo":false,"script":null)
 ]
}
heavy_kick={
"deadzone": 0.5,
"events": [ Object(InputEventKey,"resource_local_to_scene":false,"resource_name":"","device":0,"alt":false,"shift":false,"control":false,"meta":false,"command":false,"pressed":false,"scancode":46,"physical_scancode":0,"unicode":0,"echo":false,"script":null)
 ]
}
dash={
"deadzone": 0.5,
"events": [ Object(InputEventKey,"resource_local_to_scene":false,"resource_name":"","device":0,"alt":false,"shift":false,"control":false,"meta":false,"command":false,"pressed":false,"scancode":72,"physical_scancode":0,"unicode":0,"echo":false,"script":null)
, Object(InputEventJoypadButton,"resource_local_to_scene":false,"resource_name":"","device":0,"button_index":4,"pressure":0.0,"pressed":false,"script":null)
 ]
}
editor_debug={
"deadzone": 0.5,
"events": [ Object(InputEventKey,"resource_local_to_scene":false,"resource_name":"","device":0,"alt":false,"shift":false,"control":false,"meta":false,"command":false,"pressed":false,"scancode":32,"physical_scancode":0,"unicode":0,"echo":false,"script":null)
 ]
}
simple_special={
"deadzone": 0.5,
"events": [ Object(InputEventKey,"resource_local_to_scene":false,"resource_name":"","device":0,"alt":false,"shift":false,"control":false,"meta":false,"command":false,"pressed":false,"scancode":78,"physical_scancode":0,"unicode":0,"echo":false,"script":null)
 ]
}

[physics]

common/enable_pause_aware_picking=true

[rendering]

quality/driver/fallback_to_gles2=true
2d/snapping/use_gpu_pixel_snap=true
environment/default_environment="res://default_env.tres"
