[gd_resource type="Resource" load_steps=8 format=2]

[ext_resource path="res://User Profile/Character Resources/CharacterResource.gd" type="Script" id=1]
[ext_resource path="res://Characters/Character0/Attacks/BNeutral/stand_B.png" type="Texture" id=2]
[ext_resource path="res://Characters/Character0/Attacks/ANeutral/stand_A.png" type="Texture" id=3]
[ext_resource path="res://Characters/Character0/Attacks/QCF/Hitbox01.tscn" type="PackedScene" id=4]
[ext_resource path="res://Characters/Character0/Attacks/ANeutral/Hitbox01.tscn" type="PackedScene" id=5]
[ext_resource path="res://Characters/Character0/Attacks/BNeutral/Hitbox01.tscn" type="PackedScene" id=6]
[ext_resource path="res://Characters/Character0/Sprites/hit_vfx_01.png" type="Texture" id=7]

[resource]
script = ExtResource( 1 )
unique_name = "Default"
list_index = 0
custom = false
character_scene = "res://User Profile/PlayerProfile.tscn"
default_path = "res://User Profile/Character Resources/resDefault.tres"
user_path = ""
move_list = [ "Idle", "Block", "Crouch", "Move", "Dash", "Jumpstart", "Air", "Airdash", "Flinch", "AirFlinch", "Launch", "Knockdown", "SLPunch", "CLPunch", "JLPunch", "SMPunch", "CMPunch", "SHPunch", "CHPunch", "JHPunch", "SLKick", "CLKick", "JLKick", "SMKick", "CMKick", "JMKick", "SHKick", "CHKick", "JHKick", "LQCF", "MQCF", "HQCF", "LDP", "MDP", "HDP", "LQCB", "MQCB", "HQCB", "LHCF", "MHCF", "HHCF" ]
sprite_list = {
"Idle": ExtResource( 3 ),
"StandA": ExtResource( 3 ),
"StandB": ExtResource( 2 )
}
vfx_dict = {
"Idle": null,
"hit01": ExtResource( 7 )
}
sfx_dict = {
"Idle": null
}
hitbox_dict = {
"AAirBack": 0,
"AAirDown": 0,
"AAirDownBack": 0,
"AAirDownForward": 0,
"AAirForward": 0,
"AAirNeutral": 0,
"AAirUp": 0,
"AAirUpBack": 0,
"AAirUpForward": 0,
"ABack": 0,
"ADown": 0,
"ADownBack": 0,
"ADownForward": 0,
"AForward": 0,
"AUp": 0,
"AUpBack": 0,
"AUpForward": 0,
"BAirBack": 0,
"BAirDown": 0,
"BAirDownBack": 0,
"BAirDownForward": 0,
"BAirForward": 0,
"BAirNeutral": 0,
"BAirUp": 0,
"BAirUpBack": 0,
"BAirUpForward": 0,
"BBack": 0,
"BDown": 0,
"BDownBack": 0,
"BDownForward": 0,
"BForward": 0,
"BNeutral": [ ExtResource( 6 ), "secondhitbox" ],
"BUp": 0,
"BUpBack": 0,
"BUpForward": 0,
"CAirBack": 0,
"CAirDown": 0,
"CAirDownBack": 0,
"CAirDownForward": 0,
"CAirForward": 0,
"CAirNeutral": 0,
"CAirUp": 0,
"CAirUpBack": 0,
"CAirUpForward": 0,
"CBack": 0,
"CDown": 0,
"CDownBack": 0,
"CDownForward": 0,
"CForward": 0,
"CNeutral": 0,
"CUp": 0,
"CUpBack": 0,
"CUpForward": 0,
"DAirBack": 0,
"DAirDown": 0,
"DAirDownBack": 0,
"DAirDownForward": 0,
"DAirForward": 0,
"DAirNeutral": 0,
"DAirUp": 0,
"DAirUpBack": 0,
"DAirUpForward": 0,
"DBack": 0,
"DDown": 0,
"DDownBack": 0,
"DDownForward": 0,
"DForward": 0,
"DNeutral": 0,
"DUp": 0,
"DUpBack": 0,
"DUpForward": 0,
"MAirDP": 0,
"MAirHCB": 0,
"MAirHCF": 0,
"MAirQCB": 0,
"MAirQCF": 0,
"MDP": 0,
"MHCB": 0,
"MHCF": 0,
"MQCB": 0,
"MQCF": [ ExtResource( 4 ), "secondhitbox" ],
"StandLightPunch": [ ExtResource( 5 ), "SecondHitbox" ]
}
true_pos = Vector2( 0, 0 )
