[gd_scene load_steps=3 format=2]

[ext_resource path="res://Characters/Character0/Attacks/QCF/Hitbox01.gd" type="Script" id=1]

[sub_resource type="CircleShape2D" id=1]
radius = 37.1214

[node name="Area2D" type="Area2D"]
collision_layer = 0
collision_mask = 8
script = ExtResource( 1 )
pos_offset = Vector2( 194, -124 )
duration = 10
hitpause = 15
hitstun = 15
knockback = 320.0
projectile = true
juggle_max = 3

[node name="CollisionShape2D" type="CollisionShape2D" parent="."]
shape = SubResource( 1 )
